Balón de Oro 2021
…
base_ligas = base_ligas %>%  group_by(JUGADOR) %>% summarise(TOTAL_GOLES = sum(TOTAL_GOLES),
                                                                                                 TOTAL_PARTIDOS = n(),
                                                                                                 TOTAL_ASISTENCIAS = sum(TOTAL_ASISTENCIAS),
                                                                                                 TOTAL_TA = sum(TOTAL_TA),
                                                                                                 TOTAL_STA = sum(TOTAL_STA),
                                                                                                 TOTAL_ROJAS = sum(TOTAL_ROJAS),
                                                                                                 TOTAL_TIEMPO_JUGADO = sum(TOTAL_TIEMPO_JUGADO)) %>% mutate(PROMEDIO_GOL = round(TOTAL_GOLES / TOTAL_PARTIDOS,2))

En el código anterior podemos encontrar la forma en que redujimos una base de datos de mas de mil filas y 19 columnas a una de tan solo 30 filas y 9 columnas con la información suficiente necesaria para nuestro análisis a nivel selección.

A continuación, mostraremos como queda la base de datos indicada:

base_ligas

## # A tibble: 30 x 9
##    JUGADOR        TOTAL_GOLES TOTAL_PARTIDOS TOTAL_ASISTENCI~ TOTAL_TA TOTAL_STA
##    <fct>                <int>          <int>            <int>    <int>     <int>
##  1 Bruno Fernand~          17              3               16        6         0
##  2 Cesar Azpilic~           1              2                4        4         0
##  3 Cristiano Ron~          26              3                4        7         0
##  4 Erling Haaland          31              2               12        4         0
##  5 Gerard Moreno           24              3               11        4         0
##  6 Gianluigi Don~           0              4                0        3         0
##  7 Giorgio Chiel~           0              2                1        6         0
##  8 Harry Kane              17              2                5        2         0
##  9 Jorginho                 7              2                2        4         0
## 10 Kante                    1              2                1        4         0
## # ... with 20 more rows, and 3 more variables: TOTAL_ROJAS <int>,
## #   TOTAL_TIEMPO_JUGADO <int>, PROMEDIO_GOL <dbl>
…
base_selecciones = do.call("rbind",lista_selecciones)

base_selecciones = base_selecciones %>%  group_by(JUGADOR) %>% summarise(TOTAL_GOLES = sum(TOTAL_GOLES),
                                                             TOTAL_PARTIDOS = n(),
                                                             TOTAL_ASISTENCIAS = sum(TOTAL_ASISTENCIAS),
                                                             TOTAL_TA = sum(TOTAL_TA),
                                                             TOTAL_STA = sum(TOTAL_STA),
                                                             TOTAL_ROJAS = sum(TOTAL_ROJAS),
                                                             TOTAL_TIEMPO_JUGADO = sum(TOTAL_TIEMPO_JUGADO)) %>% mutate(PROMEDIO_GOL = round(TOTAL_GOLES / TOTAL_PARTIDOS,2))

Dándonos como resultado la siguiente base de datos.

base_selecciones

## # A tibble: 28 x 9
##    JUGADOR        TOTAL_GOLES TOTAL_PARTIDOS TOTAL_ASISTENCI~ TOTAL_TA TOTAL_STA
##    <fct>                <int>          <int>            <int>    <int>     <int>
##  1 Bruno Fernand~           1              2                2        2         0
##  2 Cesar Azpilic~           1              2                0        0         0
##  3 Cristiano Ron~          11              2                1        2         0
##  4 Erling Haaland           5              1                0        0         0
##  5 Gerard Moreno            1              2                2        0         0
##  6 Gianluigi Don~           0              2                0        0         0
##  7 Giorgio Chiel~           0              2                0        2         0
##  8 Harry Kane               9              2                1        1         0
##  9 Jorginho                 0              2                0        1         0
## 10 Kante                    0              2                0        0         0
## # ... with 18 more rows, and 3 more variables: TOTAL_ROJAS <int>,
## #   TOTAL_TIEMPO_JUGADO <int>, PROMEDIO_GOL <dbl>
…
Los jugadores que son excluidos, son de poca relevancia para el estudio ya que o son defensas, un arquero, o no hicieron nada relevante con su selección.

Y nuevamente rebautizamos la columna nombre, en la base total ya que viene con el nombre otorgado por la base_ligas, para dejarlo simplemente con la indicación “JUGADOR”

base_total = left_join(base_ligas, base_selecciones, by = c("JUGADOR_liga" = "JUGADOR_selecciones")) %>% filter(!JUGADOR_liga %in% c("Riyad Mahrez","Mohamed Salah","Giorgio Chiellini","Gianluigi Donnarumma","Cesar Azpilicueta"))

base_total = base_total %>% select(-c(TOTAL_TA_liga,TOTAL_STA_liga,TOTAL_ROJAS_liga,TOTAL_TA_selecciones,TOTAL_STA_selecciones,TOTAL_ROJAS_selecciones))

names(base_total)[1] <- "JUGADOR"

Y así obtenemos la base de datos definitiva con la información requerida

base_total

## # A tibble: 25 x 11
##    JUGADOR  TOTAL_GOLES_liga TOTAL_PARTIDOS_l~ TOTAL_ASISTENCI~ TOTAL_TIEMPO_JU~
##    <fct>               <int>             <int>            <int>            <int>
##  1 Bruno F~               17                 3               16             3922
##  2 Cristia~               26                 3                4             3207
##  3 Erling ~               31                 2               12             2835
##  4 Gerard ~               24                 3               11             2831
##  5 Harry K~               17                 2                5             2774
##  6 Jorginho                7                 2                2             2986
##  7 Kante                   1                 2                1             1676
##  8 Karim B~               31                 2               12             3430
##  9 Kevin D~                9                 2                6             2095
## 10 Kylian ~               28                 2               14             3396
## # ... with 15 more rows, and 6 more variables: PROMEDIO_GOL_liga <dbl>,
## #   TOTAL_GOLES_selecciones <int>, TOTAL_PARTIDOS_selecciones <int>,
## #   TOTAL_ASISTENCIAS_selecciones <int>, TOTAL_TIEMPO_JUGADO_selecciones <int>,
## #   PROMEDIO_GOL_selecciones <dbl>
…
